…
#>  6               1125315 acetaminophen n_missing_ve…        44    10000       25
#>  7               1125315 acetaminophen n_missing_dr…        44    10000       25
#>  8               1125315 acetaminophen n_missing_qu…        44    10000       25
#>  9               1125315 acetaminophen n_missing_da…        44    10000       25
#> 10               1125315 acetaminophen n_missing_sig        44    10000       25
#> 11               1125315 acetaminophen n_missing_ro…        44    10000       25
#> 12               1125315 acetaminophen n_missing_dr…        44    10000       25
#> 13               1125315 acetaminophen n_missing_dr…        44    10000       25
#> 14               1125315 acetaminophen n_missing_ro…        44    10000       25
#> 15               1125315 acetaminophen n_missing_do…        44    10000       25
#> # ℹ 4 more variables: n_records_not_missing_value <dbl>,
#> #   n_records_missing_value <dbl>, proportion_records_missing_value <dbl>,
#> #   result_obscured <lgl>
all_checks$missingValuesByConcept
#> # A tibble: 90 × 12
#> # Rowwise:  drug_concept_id, drug, ingredient_concept_id, ingredient
#>    drug_concept_id drug      ingredient_concept_id ingredient variable n_records
#>              <int> <chr>                     <int> <chr>      <chr>        <int>
#>  1        40229134 acetamin…               1125315 acetamino… n_missi…         6
#>  2        40229134 acetamin…               1125315 acetamino… n_missi…         6
#>  3        40229134 acetamin…               1125315 acetamino… n_missi…         6
#>  4        40229134 acetamin…               1125315 acetamino… n_missi…         6
#>  5        40229134 acetamin…               1125315 acetamino… n_missi…         6
#>  6        40229134 acetamin…               1125315 acetamino… n_missi…         6
#>  7        40229134 acetamin…               1125315 acetamino… n_missi…         6
#>  8        40229134 acetamin…               1125315 acetamino… n_missi…         6
#>  9        40229134 acetamin…               1125315 acetamino… n_missi…         6
#> 10        40229134 acetamin…               1125315 acetamino… n_missi…         6
#> # ℹ 80 more rows
#> # ℹ 6 more variables: n_sample <dbl>, n_person <dbl>,
#> #   n_records_not_missing_value <dbl>, n_records_missing_value <dbl>,
#> #   proportion_records_missing_value <dbl>, result_obscured <lgl>
```
…
