…
#>  6               1125315 acetaminophen n_missing_verbatim_en…        44    10000
#>  7               1125315 acetaminophen n_missing_drug_type_c…        44    10000
#>  8               1125315 acetaminophen n_missing_quantity            44    10000
#>  9               1125315 acetaminophen n_missing_days_supply         44    10000
#> 10               1125315 acetaminophen n_missing_sig                 44    10000
#> 11               1125315 acetaminophen n_missing_route_conce…        44    10000
#> 12               1125315 acetaminophen n_missing_drug_source…        44    10000
#> 13               1125315 acetaminophen n_missing_drug_source…        44    10000
#> 14               1125315 acetaminophen n_missing_route_sourc…        44    10000
#> 15               1125315 acetaminophen n_missing_dose_unit_s…        44    10000
#> # ℹ 4 more variables: n_records_not_missing_value <dbl>,
#> #   n_records_missing_value <dbl>, proportion_records_missing_value <dbl>,
#> #   result_obscured <lgl>
all_checks$missingValuesByConcept
#> # A tibble: 90 × 11
#> # Rowwise:  drug_concept_id, drug, ingredient_concept_id, ingredient
#>    drug_concept_id drug      ingredient_concept_id ingredient variable n_records
#>              <dbl> <chr>                     <dbl> <chr>      <chr>        <int>
#>  1        40162522 acetamin…               1125315 acetamino… n_missi…        12
#>  2        40162522 acetamin…               1125315 acetamino… n_missi…        12
#>  3        40162522 acetamin…               1125315 acetamino… n_missi…        12
#>  4        40162522 acetamin…               1125315 acetamino… n_missi…        12
#>  5        40162522 acetamin…               1125315 acetamino… n_missi…        12
#>  6        40162522 acetamin…               1125315 acetamino… n_missi…        12
#>  7        40162522 acetamin…               1125315 acetamino… n_missi…        12
#>  8        40162522 acetamin…               1125315 acetamino… n_missi…        12
#>  9        40162522 acetamin…               1125315 acetamino… n_missi…        12
#> 10        40162522 acetamin…               1125315 acetamino… n_missi…        12
#> # ℹ 80 more rows
#> # ℹ 5 more variables: n_sample <dbl>, n_records_not_missing_value <dbl>,
#> #   n_records_missing_value <dbl>, proportion_records_missing_value <dbl>,
#> #   result_obscured <lgl>
```
…
